{
	"format_version": "1.12.0",
	"minecraft:geometry": [
		{
			"description": {
				"identifier": "geometry.unknown",
				"texture_width": 128,
				"texture_height": 128,
				"visible_bounds_width": 2,
				"visible_bounds_height": 4.5,
				"visible_bounds_offset": [0, 1.75, 0]
			},
			"bones": [
				{
					"name": "bipedHead",
					"pivot": [0, 24, 0]
				},
				{
					"name": "armorHead",
					"parent": "bipedHead",
					"pivot": [0, 24, 0]
				},
				{
					"name": "layer1",
					"parent": "armorHead",
					"pivot": [0, 24, 0],
					"cubes": [
						{"origin": [-3, 32, -5], "size": [6, 5, 10], "uv": [0, 16]},
						{"origin": [-5, 32, -3], "size": [10, 5, 6], "uv": [26, 25]},
						{"origin": [-4, 32, -4], "size": [8, 5, 8], "uv": [24, 8]}
					]
				},
				{
					"name": "layer2",
					"parent": "armorHead",
					"pivot": [0, 24, 0],
					"cubes": [
						{"origin": [-3, 37, -4], "size": [6, 5, 8], "uv": [0, 31]},
						{"origin": [-4, 37, -3], "size": [8, 5, 6], "uv": [0, 44]}
					]
				},
				{
					"name": "handle",
					"parent": "armorHead",
					"pivot": [0, 34, 0],
					"rotation": [22.5, -45, 0],
					"cubes": [
						{"origin": [5, 34, -6], "size": [1, 1, 6], "uv": [32, 1]},
						{"origin": [-6, 34, -6], "size": [1, 1, 6], "uv": [24, 0]},
						{"origin": [-5, 34, -7], "size": [10, 1, 1], "uv": [22, 21]}
					]
				},
				{
					"name": "bipedBody",
					"pivot": [0, 24, 0]
				},
				{
					"name": "armorBody",
					"parent": "bipedBody",
					"pivot": [0, 24, 0]
				},
				{
					"name": "bipedLeftArm",
					"pivot": [-4, 22, 0]
				},
				{
					"name": "armorLeftArm",
					"parent": "bipedLeftArm",
					"pivot": [-4, 22, 0]
				},
				{
					"name": "bipedRightArm",
					"pivot": [4, 22, 0]
				},
				{
					"name": "armorRightArm",
					"parent": "bipedRightArm",
					"pivot": [4, 22, 0]
				},
				{
					"name": "bipedLeftLeg",
					"pivot": [-2, 12, 0]
				},
				{
					"name": "armorLeftLeg",
					"parent": "bipedLeftLeg",
					"pivot": [-2, 12, 0]
				},
				{
					"name": "armorLeftBoot",
					"parent": "bipedLeftLeg",
					"pivot": [-2, 12, 0]
				},
				{
					"name": "bipedRightLeg",
					"pivot": [2, 12, 0]
				},
				{
					"name": "armorRightLeg",
					"parent": "bipedRightLeg",
					"pivot": [2, 12, 0]
				},
				{
					"name": "armorRightBoot",
					"parent": "bipedRightLeg",
					"pivot": [2, 12, 0]
				}
			]
		}
	]
}